<svg xmlns="http://www.w3.org/2000/svg" viewBox="0 0 10 10" width="10" height="10">
  <defs>
    <style>
      .cls-1 {
        fill: #3b86ff;
      }
    </style>
  </defs>
  <g id="pencil-edit-button_3_" data-name="pencil-edit-button (3)" transform="translate(-0.001 -1.289)">
    <path id="Path_4476" data-name="Path 4476" class="cls-1" d="M6.219,2.958,8.253,5,3.1,10.176,1.071,8.132ZM9.8,2.465l-.907-.912a.9.9,0,0,0-1.272,0l-.869.873L8.783,4.47,9.8,3.452A.7.7,0,0,0,9.8,2.465ZM.006,11.005a.232.232,0,0,0,.28.277l2.267-.552L.52,8.686Z" transform="translate(0 0)"/>
  </g>
</svg>
