<svg xmlns="http://www.w3.org/2000/svg" viewBox="0 0 9.288 4.644" height="5" width="10">
  <defs>
    <style>
      .cls-1 {
        fill: #FFFFFF;
      }
    </style>
  </defs>
  <path id="Subtraction_14" data-name="Subtraction 14" class="cls-1" d="M9.288,4.644H0L4.644,0,9.287,4.643Z" transform="translate(9.288 4.644) rotate(180)"/>
</svg>
