<svg xmlns="http://www.w3.org/2000/svg" viewBox="0 0 10.906 9.097" height="9" width="10">
  <defs>
    <style>
      .cls-1 {
        fill: #f89d27;
      }
    </style>
  </defs>
  <path id="alert" class="cls-1" d="M10.706,32.913,6.529,26.368a1.276,1.276,0,0,0-2.151,0L.2,32.913a1.276,1.276,0,0,0,1.076,1.962H9.631a1.276,1.276,0,0,0,1.076-1.962Zm-5.253.861a.7.7,0,1,1,.7-.7A.7.7,0,0,1,5.453,33.774Zm.964-4.833-.343,2.306a.621.621,0,0,1-1.228.008l-.372-2.3a.983.983,0,1,1,1.941-.314A1.012,1.012,0,0,1,6.417,28.94Z" transform="translate(0 -25.778)"/>
</svg>
