<svg xmlns="http://www.w3.org/2000/svg" viewBox="0 0 29.701 31.73" height="25" width="25">
  <defs>
    <style>
      .cls-1 {
        fill: #fff;
      }
    </style>
  </defs>
  <g id="accept-file-or-checklist" transform="translate(-1.015)">
    <path id="Path_4028" data-name="Path 4028" class="cls-1" d="M23.973,18.244a6.743,6.743,0,1,0,6.743,6.743A6.744,6.744,0,0,0,23.973,18.244ZM22.526,29.135l-3.6-3.6,1.414-1.414,2.187,2.187,4.758-4.758L28.7,22.963Z"/>
    <path id="Path_4029" data-name="Path 4029" class="cls-1" d="M2.883,28.016V8.924H9.94V1.867H23.3V17.278c.221-.019.443-.034.67-.034a7.732,7.732,0,0,1,1.2.1V0H8.755L1.015,8.171V29.882H17.98a7.771,7.771,0,0,1-1.132-1.867H2.883ZM8.072,3.436V7.057H4.643Z"/>
    <rect id="Rectangle_1574" data-name="Rectangle 1574" class="cls-1" width="15.825" height="2.104" transform="translate(5.122 14.174)"/>
    <path id="Path_4030" data-name="Path 4030" class="cls-1" d="M20.036,18.331H5.122v2.1h12.6A7.79,7.79,0,0,1,20.036,18.331Z"/>
    <path id="Path_4031" data-name="Path 4031" class="cls-1" d="M5.122,24.779H16.241a7.731,7.731,0,0,1,.342-2.1H5.122Z"/>
  </g>
</svg>
