<svg id="dashboard" xmlns="http://www.w3.org/2000/svg" viewBox="0 0 13.774 13.774" height="23" width="23">
  <defs>
    <style>
      .cls-1 {
        fill: #a4a1fb;
      }
    </style>
  </defs>
  <g id="Group_365" data-name="Group 365">
    <g id="Group_364" data-name="Group 364">
      <rect id="Rectangle_1553" data-name="Rectangle 1553" class="cls-1" width="6.122" height="4.591" transform="translate(7.652)"/>
      <rect id="Rectangle_1554" data-name="Rectangle 1554" class="cls-1" width="6.122" height="7.652"/>
      <rect id="Rectangle_1555" data-name="Rectangle 1555" class="cls-1" width="6.122" height="4.591" transform="translate(0 9.183)"/>
      <rect id="Rectangle_1556" data-name="Rectangle 1556" class="cls-1" width="6.122" height="7.652" transform="translate(7.652 6.122)"/>
    </g>
  </g>
</svg>
