<svg id="Group_453" data-name="Group 453" xmlns="http://www.w3.org/2000/svg" viewBox="0 0 29.484 39.371" height="23" width="23">
  <defs>
    <style>
      .cls-1 {
        fill: #4c4c5a;
      }
    </style>
  </defs>
  <g id="talent" transform="translate(0)">
    <path id="Path_4044" data-name="Path 4044" class="cls-1" d="M28.424,241.957a3.625,3.625,0,0,0-5.126,0l-2.62,2.621a5.936,5.936,0,0,0-11.872,0l-2.62-2.62a3.624,3.624,0,0,0-5.126,5.126l7.587,7.587v3.867A1.153,1.153,0,0,0,9.8,259.69h9.884a1.153,1.153,0,0,0,1.153-1.153V254.67l7.587-7.587A3.629,3.629,0,0,0,28.424,241.957Zm-13.682-.979a3.63,3.63,0,1,1-3.63,3.63A3.634,3.634,0,0,1,14.742,240.979Zm12.051,4.473-7.925,7.925a1.154,1.154,0,0,0-.338.816v3.191H10.954v-3.191a1.154,1.154,0,0,0-.338-.816l-7.925-7.925a1.318,1.318,0,0,1,1.864-1.863l6.619,6.619a1.153,1.153,0,0,0,.815.338h5.506a1.153,1.153,0,0,0,.816-.338l6.619-6.619a1.318,1.318,0,1,1,1.863,1.863Zm0,0" transform="translate(-0.001 -220.319)"/>
    <path id="Path_4045" data-name="Path 4045" class="cls-1" d="M80.067,10.93l-.809,4.716a1.153,1.153,0,0,0,1.674,1.216l4.236-2.227L89.4,16.862a1.148,1.148,0,0,0,.536.133h0a1.155,1.155,0,0,0,1.123-1.412l-.8-4.653,3.427-3.34a1.153,1.153,0,0,0-.639-1.967L88.32,4.934,86.2.643a1.154,1.154,0,0,0-2.069,0L82.015,4.934l-4.735.688a1.153,1.153,0,0,0-.639,1.967Zm2.88-3.8a1.154,1.154,0,0,0,.868-.631L85.167,3.76,86.519,6.5a1.153,1.153,0,0,0,.868.631l3.023.439L88.223,9.7a1.154,1.154,0,0,0-.332,1.021l.516,3.01-2.7-1.421a1.151,1.151,0,0,0-1.074,0l-2.7,1.421.517-3.01A1.153,1.153,0,0,0,82.112,9.7L79.924,7.569Zm0,0" transform="translate(-70.426)"/>
  </g>
  <path id="Path_4046" data-name="Path 4046" class="cls-1" d="M2048.89,289.134l.753-4.859-2.806-2.764v-.88l3.853-.838,2.345-2.681.837-1.8,1.089,1.8,1.592,2.681a9.5,9.5,0,0,0,2.429.838,11.289,11.289,0,0,1,1.717,0,16.051,16.051,0,0,1-1.172,2.01c-.252.209-2.136,2.6-2.136,2.6l.377,3.351-1.55.251-3.183-1.508Z" transform="translate(-2038.691 -273.794)"/>
</svg>
