<svg xmlns="http://www.w3.org/2000/svg" viewBox="0 0 14.59 14.59" height="14" width="14">
  <defs>
    <style>
      .cls-1 {
        opacity: 0.3;
      }
    </style>
  </defs>
  <g id="information" class="cls-1">
    <g id="Group_457" data-name="Group 457">
      <g id="Group_456" data-name="Group 456">
        <path id="Path_3954" data-name="Path 3954" d="M192.067,106.84a1.455,1.455,0,0,0,.08.147c.027.04.067.08.093.12a1.2,1.2,0,0,0,.133.12.449.449,0,0,0,.16.08.66.66,0,0,0,.173.053.82.82,0,0,0,.173.013.76.76,0,0,0,.173-.013.478.478,0,0,0,.147-.053h.013a1,1,0,0,0,.16-.093.863.863,0,0,0,.12-.107l.013-.013a.733.733,0,0,0,.093-.12.417.417,0,0,0,.067-.133c0-.013,0-.013.013-.027a.863.863,0,0,0,.053-.173,1.134,1.134,0,0,0,0-.347,1.239,1.239,0,0,0-.053-.173.757.757,0,0,0-.16-.24l-.027-.027a1.166,1.166,0,0,0-.133-.107c-.053-.027-.093-.053-.147-.08a.752.752,0,0,0-.16-.053.82.82,0,0,0-.173-.013.76.76,0,0,0-.173.013.752.752,0,0,0-.16.053h-.013a1.455,1.455,0,0,0-.147.08,1.166,1.166,0,0,0-.133.107.863.863,0,0,0-.107.12,1.455,1.455,0,0,0-.08.147.752.752,0,0,0-.053.16.82.82,0,0,0-.013.173.76.76,0,0,0,.013.173A1.21,1.21,0,0,0,192.067,106.84Z" transform="translate(-185.599 -102.079)"/>
        <path id="Path_3955" data-name="Path 3955" d="M180,184.414h-.307v-3.267a.344.344,0,0,0-.347-.347h-1.4a.344.344,0,0,0-.347.347v.72a.344.344,0,0,0,.347.347h.28v2.214h-.28a.344.344,0,0,0-.347.347v.72a.344.344,0,0,0,.347.347H180a.344.344,0,0,0,.347-.347v-.72A.356.356,0,0,0,180,184.414Z" transform="translate(-171.679 -174.772)"/>
        <path id="Path_3956" data-name="Path 3956" d="M7.295,0A7.295,7.295,0,1,0,14.59,7.295,7.3,7.3,0,0,0,7.295,0Zm0,13.63A6.335,6.335,0,1,1,13.63,7.295,6.34,6.34,0,0,1,7.295,13.63Z"/>
      </g>
    </g>
  </g>
</svg>
