<svg xmlns="http://www.w3.org/2000/svg" viewBox="0 0 25.037 17.783" height="23" width="23">
  <defs>
    <style>
      .cls-1 {
        fill: #4c4c5a;
      }
    </style>
  </defs>
  <g id="sign-in" transform="translate(0 -74.175)">
    <g id="Group_464" data-name="Group 464" transform="translate(8.54 90.487)">
      <g id="Group_463" data-name="Group 463">
        <rect id="Rectangle_1602" data-name="Rectangle 1602" class="cls-1" width="16.439" height="1.471"/>
      </g>
    </g>
    <g id="Group_466" data-name="Group 466" transform="translate(8.483 84.854)">
      <g id="Group_465" data-name="Group 465">
        <path id="Path_4049" data-name="Path 4049" class="cls-1" d="M178.218,294.2l-.711-1.154-1.01.618.031-1.1h-1.38l.031,1.1-1.01-.618-.7,1.154.989.525-.989.525.7,1.154,1.01-.618-.031,1.1h1.38l-.031-1.1,1.01.618.711-1.154-.989-.525Z" transform="translate(-173.469 -292.56)"/>
      </g>
    </g>
    <g id="Group_468" data-name="Group 468" transform="translate(14.385 84.854)">
      <g id="Group_467" data-name="Group 467">
        <path id="Path_4050" data-name="Path 4050" class="cls-1" d="M298.924,294.2l-.711-1.154-1.01.618.031-1.1h-1.38l.031,1.1-1.01-.618-.7,1.154.989.525-.989.525.7,1.154,1.01-.618-.031,1.1h1.38l-.031-1.1,1.01.618.711-1.154-.989-.525Z" transform="translate(-294.175 -292.56)"/>
      </g>
    </g>
    <g id="Group_470" data-name="Group 470" transform="translate(20.288 84.854)">
      <g id="Group_469" data-name="Group 469">
        <path id="Path_4051" data-name="Path 4051" class="cls-1" d="M419.63,294.2l-.711-1.154-1.01.618.031-1.1h-1.38l.031,1.1-1.01-.618-.7,1.154.989.525-.989.525.7,1.154,1.01-.618-.031,1.1h1.38l-.031-1.1,1.01.618.711-1.154-.989-.525Z" transform="translate(-414.881 -292.56)"/>
      </g>
    </g>
    <g id="Group_472" data-name="Group 472" transform="translate(8.54 80.973)">
      <g id="Group_471" data-name="Group 471">
        <rect id="Rectangle_1603" data-name="Rectangle 1603" class="cls-1" width="16.439" height="1.471"/>
      </g>
    </g>
    <g id="Group_474" data-name="Group 474" transform="translate(8.483 75.34)">
      <g id="Group_473" data-name="Group 473">
        <path id="Path_4052" data-name="Path 4052" class="cls-1" d="M178.218,99.64l-.711-1.154-1.01.618.031-1.1h-1.38l.031,1.1-1.01-.618-.7,1.154.989.525-.989.525.7,1.154,1.01-.618-.031,1.1h1.38l-.031-1.1,1.01.618.711-1.154-.989-.525Z" transform="translate(-173.469 -98.002)"/>
      </g>
    </g>
    <g id="Group_476" data-name="Group 476" transform="translate(14.385 75.34)">
      <g id="Group_475" data-name="Group 475">
        <path id="Path_4053" data-name="Path 4053" class="cls-1" d="M298.924,99.64l-.711-1.154-1.01.618.031-1.1h-1.38l.031,1.1-1.01-.618-.7,1.154.989.525-.989.525.7,1.154,1.01-.618-.031,1.1h1.38l-.031-1.1,1.01.618.711-1.154-.989-.525Z" transform="translate(-294.175 -98.002)"/>
      </g>
    </g>
    <g id="Group_478" data-name="Group 478" transform="translate(20.288 75.34)">
      <g id="Group_477" data-name="Group 477">
        <path id="Path_4054" data-name="Path 4054" class="cls-1" d="M419.63,99.64l-.711-1.154-1.01.618.031-1.1h-1.38l.031,1.1-1.01-.618-.7,1.154.989.525-.989.525.7,1.154,1.01-.618-.031,1.1h1.38l-.031-1.1,1.01.618.711-1.154-.989-.525Z" transform="translate(-414.881 -98.002)"/>
      </g>
    </g>
    <g id="Group_480" data-name="Group 480" transform="translate(0.118 84.11)">
      <g id="Group_479" data-name="Group 479">
        <path id="Path_4055" data-name="Path 4055" class="cls-1" d="M8.328,280.807v-.972h0a2.484,2.484,0,0,0-4.968,0v.972H2.41V285.2H9.278v-4.391Zm-1.471,0H4.831v-.972a1.013,1.013,0,0,1,2.026,0v.972Z" transform="translate(-2.41 -277.351)"/>
      </g>
    </g>
    <g id="Group_482" data-name="Group 482" transform="translate(0 74.175)">
      <g id="Group_481" data-name="Group 481">
        <path id="Path_4056" data-name="Path 4056" class="cls-1" d="M6.994,80.33a3.561,3.561,0,0,0-1.519-2.07,2.5,2.5,0,1,0-3.846,0A3.562,3.562,0,0,0,.11,80.33L0,80.736l1.674,1.707H5.429L7.1,80.736Z" transform="translate(0 -74.175)"/>
      </g>
    </g>
  </g>
</svg>
