<svg xmlns="http://www.w3.org/2000/svg" viewBox="0 0 184.995 107.544" height="102" width="181">
  <defs>
    <style>
      .cls-1 {
        fill: none;
        stroke: #fff;
        stroke-width: 5px;
      }
    </style>
  </defs>
  <path id="Path_4078" data-name="Path 4078" class="cls-1" d="M11891.7,2848s-4.5-29.6,8.3-29.6,1.6,25.6,22.4,29.6,19.2-4,22.4-12,0-17.6,0-17.6-17.6-20.8,0-20.8,24,15.6,32,20.8,35.2,3.2,38.4-9.6-16-22.4,0-27.2,22.4-11.2,22.4-11.2,28.8-22.4,35.2-24" transform="translate(-11888.411 -2743.975)"/>
</svg>
