<svg xmlns="http://www.w3.org/2000/svg" viewBox="0 0 10.098 10.788" height="11" width="11">
  <defs>
    <style>
      .cls-1 {
        fill: #5cd649;
      }
    </style>
  </defs>
  <g id="accept-file-or-checklist" transform="translate(-1.015)">
    <path id="Path_4028" data-name="Path 4028" class="cls-1" d="M19.522,18.244a2.292,2.292,0,1,0,2.292,2.292A2.293,2.293,0,0,0,19.522,18.244Zm-.492,3.7-1.224-1.224.481-.481.744.744,1.618-1.618.481.481Z" transform="translate(-10.702 -12.041)"/>
    <path id="Path_4029" data-name="Path 4029" class="cls-1" d="M1.65,9.525V3.034h2.4V.635H8.592V5.874c.075-.006.151-.012.228-.012a2.629,2.629,0,0,1,.407.035V0H3.646L1.015,2.778v7.381H6.783A2.642,2.642,0,0,1,6.4,9.525H1.65ZM3.414,1.168V2.4H2.248Z"/>
    <rect id="Rectangle_1574" data-name="Rectangle 1574" class="cls-1" width="5.38" height="0.715" transform="translate(2.411 4.819)"/>
    <path id="Path_4030" data-name="Path 4030" class="cls-1" d="M10.192,18.331H5.122v.715H9.406A2.648,2.648,0,0,1,10.192,18.331Z" transform="translate(-2.711 -12.099)"/>
    <path id="Path_4031" data-name="Path 4031" class="cls-1" d="M5.122,23.39H8.9a2.628,2.628,0,0,1,.116-.715h-3.9Z" transform="translate(-2.711 -14.966)"/>
  </g>
</svg>
