<svg xmlns="http://www.w3.org/2000/svg" viewBox="0 0 11 11" height="11" width="11">
  <defs>
    <style>
      .cls-1 {
        fill: #ff4141;
      }
    </style>
  </defs>
  <g id="signal_1_" data-name="signal (1)" transform="translate(0 0)">
    <g id="Group_414" data-name="Group 414" transform="translate(0 0)">
      <path id="Path_4034" data-name="Path 4034" class="cls-1" d="M9.373,1.626A5.456,5.456,0,0,0,5.5,0,5.5,5.5,0,1,0,11,5.5,5.456,5.456,0,0,0,9.373,1.626ZM5.5,9.689A4.188,4.188,0,0,1,2.116,3.031L7.968,8.877A4.107,4.107,0,0,1,5.5,9.689ZM8.877,7.968,3.031,2.116A4.188,4.188,0,0,1,9.689,5.5,4.107,4.107,0,0,1,8.877,7.968Z" transform="translate(0 0)"/>
    </g>
  </g>
</svg>
